Processing NECTA Results in R - Masumbuko Semba's Blog
…
IV

CIV - ‘D’ HIST - ‘F’ GEO - ‘F’ KISW - ‘C’ ENGL - ‘D’ BIO - ‘F’ B/MATH - ‘F’

Since the candidate are grouped either private or school candiate, we need to separate the cno column into the two groups. This will allow later to analyse separate the private and from school candidate. We separate the column with the separate function from tidyr package and then select only the variable of interest wit select function from dplyr package.

necta.tb = necta2019 %>%
  separate(col = cno, into = c("center", "index"), sep = "/", remove = FALSE) %>%
  separate(col = center, into = c("center_type", "a"), sep = 1) %>%
  select(school, center_type, sex, aggt, div, subjects = detailed_subjects) 

necta.tb

# A tibble: 482,545 x 6
   school       center_type sex   aggt  div   subjects                          
   <chr>        <chr>       <chr> <chr> <chr> <chr>                             
 1 " AZANIA  C~ P           F     -     IV    HIST - 'C'   GEO - 'F'   ENGL - '~
 2 " AZANIA  C~ P           F     -     0     PHY - 'F'   CHEM - 'D'   BIO - 'F~
 3 " AZANIA  C~ P           F     -     0     CIV - 'F'   HIST - 'F'   GEO - 'F~
 4 " AZANIA  C~ P           F     -     0     PHY - 'D'   B/MATH - 'F'          
 5 " AZANIA  C~ P           F     -     0     CIV - 'D'   HIST - 'F'   GEO - 'F~
 6 " AZANIA  C~ P           F     -     IV    CIV - 'C'   HIST - 'C'   GEO - 'D'
 7 " AZANIA  C~ P           F     -     0     CIV - 'D'   GEO - 'F'   BIO - 'F'~
 8 " AZANIA  C~ P           F     -     IV    HIST - 'F'   GEO - 'F'   KISW - '~
 9 " AZANIA  C~ P           F     -     IV    PHY - 'D'   CHEM - 'D'   B/MATH -~
10 " AZANIA  C~ P           F     -     0     PHY - 'F'   CHEM - 'F'   BIO - 'F'
# ... with 482,535 more rows

We also notice that a aggt variable for some candidate is filled with -. Looking at this variable, I noticed that these are missing values and are supposed to denoted as NA instead of -. Therefore, we need to convert these values into NA. dplyr has a function called na_if which does the work as shown in the chunk below. We only need to specify the symbol that we want to change to NA.

necta.tb = necta.tb %>%
  na_if("-")

necta.tb

# A tibble: 482,545 x 6
   school       center_type sex   aggt  div   subjects                          
   <chr>        <chr>       <chr> <chr> <chr> <chr>                             
 1 " AZANIA  C~ P           F     <NA>  IV    HIST - 'C'   GEO - 'F'   ENGL - '~
 2 " AZANIA  C~ P           F     <NA>  0     PHY - 'F'   CHEM - 'D'   BIO - 'F~
 3 " AZANIA  C~ P           F     <NA>  0     CIV - 'F'   HIST - 'F'   GEO - 'F~
 4 " AZANIA  C~ P           F     <NA>  0     PHY - 'D'   B/MATH - 'F'          
 5 " AZANIA  C~ P           F     <NA>  0     CIV - 'D'   HIST - 'F'   GEO - 'F~
 6 " AZANIA  C~ P           F     <NA>  IV    CIV - 'C'   HIST - 'C'   GEO - 'D'
 7 " AZANIA  C~ P           F     <NA>  0     CIV - 'D'   GEO - 'F'   BIO - 'F'~
 8 " AZANIA  C~ P           F     <NA>  IV    HIST - 'F'   GEO - 'F'   KISW - '~
 9 " AZANIA  C~ P           F     <NA>  IV    PHY - 'D'   CHEM - 'D'   B/MATH -~
10 " AZANIA  C~ P           F     <NA>  0     PHY - 'F'   CHEM - 'F'   BIO - 'F'
# ... with 482,535 more rows
…
