…
## Warning: Calling `as_tibble()` on a vector is discouraged, because the behavior is likely to change in the future. Use `tibble::enframe(name = NULL)` instead.
## This warning is displayed once per session.

## # A tibble: 3,991 x 2
##    word       n
##    <chr>  <int>
##  1 m        290
##  2 s        248
##  3 j        220
##  4 c        165
##  5 l        142
##  6 n        129
##  7 r        128
##  8 t        117
##  9 marine   116
## 10 p         98
## # ... with 3,981 more rows
…
