Convert incorrect filled missing values to NA in R data frame - Masumbuko Semba's Blog
…
NA

Summary

Here we have seen how to convert inproper filled cell of data frame with missing values to NA in for all columns in data frame using tidyverse functions and we have seen a nested function that specifically designed to handle these missing values in a uniform way. Missing data is a fact of life in real-world datasets, and we’ll face often when we works with data from other sources.

Remarks

If creating functions is a hurdle task to you, dplyr has a na_if() function that convert a value that meet a specified condition to NA for all the variables. For instance we could also change the zero values in the dataset into NA as shwon in the chunk below;

sst.wide %>%
  na_if(0)

# A tibble: 30 x 4
   day        Pemba Zanzibar Mafia
   <date>     <dbl>    <dbl> <dbl>
 1 2020-03-01  29.0     27.3  29.0
 2 2020-03-02  30.0     NA    29.9
 3 2020-03-03  27.5     26.4  NA  
 4 2020-03-04  29.8     31.0  29.4
 5 2020-03-05  NA       27.1  27.4
 6 2020-03-06  29.4     28.1  NA  
 7 2020-03-07  27.3     27.9  29.7
 8 2020-03-08  NA       27.4  28.3
 9 2020-03-09  28.7     29.3  NA  
10 2020-03-10  27.9     28.6  26.6
# ... with 20 more rows
…
